88
60
11
2
52
78
42
83
32
18
91
48
87
23
7
22
75
81
71
67
31
1
14
89
6
68
19
86
37
84
13
69
3
10
5
55
27
8
61
4
53
70
33
17
76
26
29
0
50
93
9
47
99
90
15
28
62
95
35
98
45
36
41
80
44
64
58
66
65
92
97
49
12
77
51
39
74
73
34
16
72
38
96
63
21
56
30
85
43
46
54
57
94
40
25
20
82
59
24
79
