33
56
3
18
36
57
64
16
50
14
41
66
25
31
6
40
45
10
28
20
29
1
77
44
24
26
35
68
11
38
9
2
12
92
30
21
43
54
4
85
63
81
52
51
0
34
95
83
69
49
37
7
61
58
19
23
13
80
76
82
8
48
17
70
42
46
62
59
88
75
67
86
72
79
71
60
65
47
39
73
27
32
15
22
53
5
55
74
78
84
87
89
90
91
93
94
96
97
98
99
