42
26
9
4
43
10
36
50
31
39
2
17
34
38
40
23
49
47
11
7
5
29
19
27
24
12
28
3
8
21
35
30
16
20
1
13
33
15
18
0
14
6
25
22
32
37
41
44
45
46
48
51
52
54
55
53
56
57
58
59
60
61
62
63
64
65
66
67
68
69
70
71
72
73
74
75
76
77
78
79
80
81
82
83
84
85
86
87
88
89
91
90
92
93
94
95
96
97
98
99
