22
2
54
1
57
49
16
37
59
5
4
34
33
71
61
10
45
80
23
0
44
62
26
3
51
20
9
6
29
7
56
11
36
66
60
50
27
14
53
76
48
73
68
72
52
75
17
21
28
38
39
64
35
25
47
12
40
24
46
41
15
19
32
42
43
31
13
18
30
8
55
58
63
65
67
69
70
74
77
78
79
81
82
83
84
85
86
87
88
89
90
91
92
93
94
95
96
97
98
99
